comments
…
#Unique Contributors pro Subreddit
df_sub_uc <- df %>%
  group_by(subreddit) %>%
  summarise(unique_contributors = n_distinct(author))
df_sub_uc

## # A tibble: 21 x 2
##    subreddit unique_contributors
##    <fct>                   <int>
##  1 Barcelona                3881
##  2 berlin                  11657
##  3 de                      73655
##  4 es                       4254
##  5 europe                 238521
##  6 france                  46358
##  7 germany                 29195
##  8 istanbul                 2005
##  9 italy                   30426
## 10 london                  33774
## # ... with 11 more rows
…
